Name,Author,Year,Type,Genre
Thus Spoke Zarathustra, Nethzsche, 1923, Philosophy, Non-Fiction
The Name of The Rose, Eco Umberto, 1967, Crime, Fiction
Test file, Testing file, Date, Genre test, Type Test
